Chapter 5 Modeling Occupancy | Best Practices for Using eBird Data
…
From these results, it’s clear that several of our effort covariates did not influence detection probability- mainly protocol type and the number of observers. However, including habitat covariates–especially mixed forest–influenced detection probability, as observed by the differences in AIC and the AIC weights for the models that include this covariate. Let’s look at the model averaged coefficients to see how they’re impacting detection and occupancy.

coef(occ_avg) %>% 
  enframe() 
#> # A tibble: 13 x 2
#>   name                                 value
#>   <chr>                                <dbl>
#> 1 psi(Int)                          -1.93   
#> 2 psi(pland_04_deciduous_broadleaf)  6.23   
#> 3 psi(pland_13_urban)               -2.09   
#> 4 p(Int)                            -1.14   
#> 5 p(duration_minutes)                0.00605
#> 6 p(pland_05_mixed_forest)           3.15   
#> # … with 7 more rows
…
